<svg width="140" height="69" viewBox="0 0 140 69" fill="none" xmlns="http://www.w3.org/2000/svg">
<path d="M15.1536 15.9861H13.8575L10.401 21.1708L8.67278 25.0593L8.24072 34.5646L9.10484 36.2928L12.5613 39.3172L17.3139 42.3416L21.6345 43.6378L25.523 45.366H29.4116L32.0039 47.0942L35.4604 47.9584L38.4848 49.2545L38.9168 47.5263H37.6206L36.3245 46.6622L32.0039 45.7981L29.8436 44.0698H25.523L21.6345 42.3416L17.3139 41.0454L12.5613 38.021L9.5369 34.9966L9.96895 25.9234L11.2651 22.0349L13.8575 17.7143L15.1536 15.9861Z" fill="#EEAF30"/>
<path d="M41.9413 33.2685L41.0771 37.5891L42.3733 37.157V34.1326L43.6695 32.8364L44.1016 31.1082L45.8298 30.2441L47.126 28.0838L48.8542 24.6273V23.3312H47.558L47.126 25.9235L46.2618 28.0838L45.3977 29.38L43.6695 30.2441L42.8054 32.4044L41.9413 33.2685Z" fill="#EEAF30"/>
<path d="M50.5823 2.16028H62.2141L61.8158 2.59234H51.0143H46.2617L45.3976 3.02439L47.5579 4.75262L49.2861 13.3938L49.7181 15.9861L50.5823 16.8502H55.3349L54.9028 17.2823H51.8784H49.7181L48.854 15.9861L48.422 13.3938L46.6937 4.75262L44.5334 3.02439L45.8296 2.16028H50.5823Z" fill="#EEAF30"/>
<path d="M41.0771 56.1675L40.645 58.3278C44.5335 69.1292 54.9029 69.5613 58.7914 61.7842L59.2235 60.4881C54.4709 69.9933 44.9656 68.2651 41.0771 56.1675Z" fill="#EEAF30"/>
<path d="M48.8544 35.4288L48.8544 34.1327C42.3735 35.4288 38.0527 44.5019 40.645 58.3277L41.0771 56.1674C40.645 47.0939 41.0773 37.5893 48.8544 35.4288Z" fill="#EEAF30"/>
<path d="M45.8297 57.0317C46.8421 57.8753 48.7058 59.2123 49.7182 60.0559C50.418 60.8946 49.8785 60.6601 45.8296 57.8957C38.9168 41.9096 56.1991 33.2685 57.0631 51.8468L56.6311 52.2789C56.1991 38.0212 42.3732 38.8853 45.8297 57.0317Z" fill="#EEAF30"/>
<path d="M72.6172 60.056C66.5684 68.6972 62.2478 67.8331 53.1746 67.401L55.3348 67.8331C66.0952 70.876 69.0123 67.8587 72.6172 60.056Z" fill="#EEAF30"/>
<path d="M109.342 59.1919C109.169 58.9557 124.464 70.4254 134.402 57.0316C130.945 67.401 114.527 66.5369 109.342 59.1919Z" fill="#EEAF30"/>
<path d="M50.1505 33.2682L49.2864 34.9964L52.3108 34.5644C56.6639 35.0817 57.8601 43.4981 60.0878 57.8955C58.8646 43.9318 58.5494 35.1238 52.7428 33.2682H50.1505Z" fill="#EEAF30"/>
<path d="M6.73278 45.1128L6.33784 47.2802C10.4111 58.0134 20.7864 58.2675 24.5409 50.4248L24.9507 49.1215C20.3618 58.7069 10.8283 57.142 6.73278 45.1128Z" fill="#EEAF30"/>
<path d="M9.96897 25.9234L10.401 24.6272C5.64841 27.2196 3.50852 33.5005 6.33766 47.2799L6.7326 45.1124C6.14491 36.0478 5.21633 28.5157 9.96897 25.9234Z" fill="#EEAF30"/>
<path d="M29.4064 47.2056C26.6343 55.2435 26.6924 56.0337 17.6966 57.2928L19.8995 57.3165C28.9743 58.4392 29.4064 48.5019 29.4064 47.2056Z" fill="#EEAF30"/>
<path d="M80.8264 52.711C68.7685 53.0636 65.2159 52.8327 63.1121 51.8468C63.1865 53.0236 68.5358 53.4302 81.2585 54.0071C83.3173 53.1051 85.8964 50.9689 92.0599 45.366L130.081 44.0698C133.882 50.3684 135.671 52.4543 137.426 50.1186C135.487 52.2175 133.537 48.3904 130.081 43.2057L91.6279 44.0698C86.7536 48.527 84.0378 50.9982 80.8264 52.711Z" fill="#EEAF30"/>
<path d="M135.266 34.1326C106.074 36.4573 89.8995 36.2929 60.9517 32.8364C70.0383 34.6314 75.3638 35.3545 85.1469 36.2929C95.6691 37.1866 101.54 37.3628 111.934 36.7249C121.174 36.1677 126.254 35.4992 135.266 34.1326Z" fill="#EEAF30"/>
<path d="M58.7915 27.2192C66.2799 23.8121 74.1381 25.9788 87.7394 29.3795C72.6174 26.7875 60.4419 26.1828 63.1121 28.0833L66.1365 30.6756C68.3183 31.6181 69.6903 32.0711 73.0494 32.4039L81.6906 33.268C73.831 32.9834 67.7978 33.5358 64.8403 31.1077L60.5197 28.0833L58.7915 27.2192Z" fill="#EEAF30"/>
<path d="M113.663 28.948C118.236 29.183 120.408 29.3594 123.6 29.8121C119.237 30.1251 116.774 30.0798 112.367 29.8121C109.89 28.5762 108.46 29.0815 105.886 30.6763L89.4675 29.8121C95.7736 29.5537 98.9812 29.6535 105.886 28.948C108.52 27.4882 110.076 26.9579 113.663 28.948Z" fill="#EEAF30"/>
<path d="M124.896 28.9478L130.945 25.4913C129.858 26.969 128.832 27.8366 127.057 29.3799C127.716 30.3248 128.114 30.8135 129.217 31.1081H134.402C132.562 32.1021 131.404 32.5464 128.785 32.8363C126.276 31.6688 125.656 30.7351 124.896 28.9478Z" fill="#EEAF30" stroke="#EEAF30" stroke-width="0.5"/>
<path d="M62.2478 57.0316C60.8731 38.4029 58.5523 32.1844 50.5823 31.5402L51.8784 32.4043C57.6132 33.4637 60.0875 39.3172 60.9517 58.3277C88.4655 60.3727 105.658 59.5096 138.29 55.7354C140.634 52.8182 139.154 43.2057 137.426 36.2928L137.433 36.324C138.688 42.0888 139.395 45.3306 138.722 52.711L137.858 54.8713C108.057 58.0726 91.4846 58.7053 62.2478 57.0316Z" fill="#EEAF30"/>
<path d="M62.6802 0V0.864167C72.3777 1.01368 77.8349 1.21536 87.7395 2.5924C93.4503 4.82013 97.7458 7.88507 108.046 17.7144C115.723 19.7395 119.962 20.6132 127.489 22.035C131.809 23.7632 134.692 26.5592 137.426 34.5647C135.698 27.6517 133.649 23.8531 127.489 21.1709C120.209 19.7131 116.147 19.0153 108.91 16.8503C102.429 10.3694 94.9537 3.92131 87.7395 1.29622C78.3048 -0.0126268 72.4398 0.482329 62.6802 0Z" fill="#EEAF30"/>
<path d="M62.248 2.16028L61.8159 2.59233C72.2387 2.89803 77.9783 3.24254 87.7394 4.65663C91.3122 6.29559 102.861 15.554 101.997 16.4182C84.6652 15.2681 74.581 15.4494 56.6312 16.4182L55.7671 17.2823C78.91 16.3799 92.0599 16.8502 106.75 18.5785C95.6904 7.18716 92.4051 5.19998 87.7394 3.45645C79.2545 2.2514 73.6241 1.99512 62.248 2.16028Z" fill="#EEAF30"/>
<path d="M62.2478 2.16028L61.8157 2.59224C51.393 2.89794 47.3815 2.4235 37.6205 3.83758C34.0477 5.47655 21.6344 15.122 22.4985 15.9861C22.0664 17.7594 51.0143 16.8953 68.7287 16.0312L69.5928 16.8953C45.8296 18.5785 27.6832 18.5784 18.61 17.7594C29.6694 6.36812 32.9548 4.38094 37.6205 2.63741C46.1054 1.43236 50.8717 1.99512 62.2478 2.16028Z" fill="#EEAF30"/>
<path d="M43.6697 0H62.6803V0.864115H43.6697L38.485 1.72823L34.5965 2.59235L30.2759 4.75264L25.5233 8.2091L21.2027 12.0976L18.6104 14.2579L16.018 15.5541H14.2898L18.1783 13.8258L20.7707 11.2335L25.5233 7.34498L29.8439 3.88852L34.1644 1.72823L38.485 0.864115L43.6697 0Z" fill="#EEAF30"/>
<path d="M31.5718 15.5545C34.5962 8.20904 43.6694 9.50515 45.8297 16.8502L44.5335 16.8506C41.9412 9.50518 32.8679 10.8014 32.4359 17.2823H31.5718C31.403 16.7761 31.469 15.8627 31.5718 15.5545Z" fill="#EEAF30"/>
<path d="M11.5078 45.9095C13.6193 47.5236 14.3563 48.1501 15.8284 49.366C14.1231 48.2196 13.1714 47.61 11.5078 46.7737C9.33441 41.633 8.1187 40.5009 10.5328 35.5402L11.2652 36.7249C9.45277 39.6227 10.393 40.9611 11.5078 45.9095Z" fill="#EEAF30"/>
</svg>
