<svg width="269" height="135" viewBox="0 0 269 135" fill="none" xmlns="http://www.w3.org/2000/svg">
<rect width="269" height="135" rx="10" fill="#002E5F"/>
<path d="M207.265 36.46L206.665 23.6C206.645 23.28 206.525 23.16 206.205 23.16H205.025C204.665 23.16 204.505 23.3 204.385 23.6L200.165 33.48H200.125L195.505 23.6C195.365 23.3 195.225 23.16 194.825 23.16H193.645C193.325 23.16 193.185 23.28 193.165 23.7L192.665 36.48C192.645 36.86 192.805 37 193.185 37H194.545C194.905 37 195.085 36.94 195.085 36.5L195.265 28.22H195.305L199.085 36.62C199.225 36.94 199.405 37 199.705 37H200.405C200.625 37 200.825 36.96 200.945 36.64L204.345 28.22H204.385L204.665 36.34C204.685 36.8 204.765 37 205.185 37H206.805C207.185 37 207.285 36.8 207.265 36.46ZM219.006 32.14C219.006 29.2 217.506 27.04 214.246 27.04C211.126 27.04 209.366 29.24 209.366 32.12C209.366 35.04 210.866 37.24 214.126 37.24C217.246 37.24 219.006 35.02 219.006 32.14ZM216.506 32.14C216.506 33.78 215.906 35.34 214.146 35.34C212.366 35.34 211.866 33.72 211.866 32.08C211.866 30.48 212.446 28.94 214.226 28.94C215.986 28.94 216.506 30.5 216.506 32.14ZM230.082 32.16C230.082 30.48 229.622 28.92 228.562 27.98C227.922 27.4 227.102 27.04 226.002 27.04C224.962 27.04 224.002 27.46 223.362 28.02V23.1C223.362 22.78 223.222 22.7 223.022 22.7C222.962 22.7 222.902 22.7 222.822 22.72L221.342 22.92C221.022 22.96 220.942 23.14 220.942 23.46V36.5C220.942 36.84 221.082 37 221.422 37H222.622C222.882 37 223.042 36.94 223.062 36.76L223.142 36.1C223.702 36.72 224.782 37.24 225.682 37.24C228.662 37.24 230.082 34.92 230.082 32.16ZM227.582 32.18C227.582 33.74 227.062 35.24 225.322 35.24C224.582 35.24 223.842 34.8 223.362 34.26V29.98C223.902 29.48 224.682 29.08 225.422 29.08C227.082 29.08 227.582 30.56 227.582 32.18ZM234.735 24.76C234.735 23.96 234.075 23.5 233.395 23.5C232.695 23.5 232.035 23.98 232.035 24.78C232.035 25.58 232.735 26.02 233.395 26.02C234.055 26.02 234.735 25.54 234.735 24.76ZM234.615 36.5V27.76C234.615 27.4 234.435 27.3 234.115 27.3H232.715C232.395 27.3 232.195 27.42 232.195 27.76V36.5C232.195 36.86 232.355 37 232.715 37H234.115C234.455 37 234.615 36.86 234.615 36.5ZM239.67 36.5V23.14C239.67 22.82 239.47 22.7 239.23 22.7C239.19 22.7 239.13 22.72 239.09 22.72L237.65 22.92C237.39 22.96 237.25 23.06 237.25 23.4V36.52C237.25 36.86 237.43 37 237.71 37H239.23C239.51 37 239.67 36.84 239.67 36.5ZM209.083 56.96C209.083 54.94 207.643 53.64 205.743 53.5V53.48C207.203 53.16 208.003 51.94 208.003 50.54C208.003 48.14 206.203 47.16 202.983 47.16H199.983C199.563 47.16 199.383 47.26 199.383 47.68V60.42C199.383 60.84 199.483 61 199.903 61H203.623C206.463 61 209.083 60.2 209.083 56.96ZM205.483 50.84C205.483 52.46 204.443 52.84 202.983 52.84H201.943V49.12H203.063C204.463 49.12 205.483 49.54 205.483 50.84ZM206.463 56.88C206.463 57.84 206.003 58.46 205.303 58.76C204.803 58.96 204.123 59.02 203.423 59.02H201.943V54.66C202.123 54.66 203.123 54.66 203.263 54.66C204.103 54.66 204.783 54.72 205.403 55.02C206.043 55.34 206.463 55.94 206.463 56.88ZM220.576 60.62V59.68C220.576 59.42 220.456 59.34 220.216 59.34H220.056C219.956 59.34 219.876 59.32 219.816 59.26C219.736 59.16 219.696 58.96 219.696 58.68V51.74C219.696 51.44 219.536 51.3 219.276 51.3H217.876C217.636 51.3 217.476 51.44 217.456 51.66L217.416 52.2C216.916 51.52 215.916 51.04 214.856 51.04C212.616 51.04 210.536 52.86 210.536 56.32C210.536 58.92 211.816 61.24 214.636 61.24C215.736 61.24 217.036 60.56 217.536 59.82H217.576C217.716 60.5 218.176 61 219.216 61H220.176C220.416 61 220.576 60.86 220.576 60.62ZM217.276 57.9C216.976 58.52 216.136 59.26 215.156 59.26C213.676 59.26 213.036 57.84 213.036 56.16C213.036 54.06 214.076 53.02 215.296 53.02C216.056 53.02 216.876 53.46 217.276 54.04V57.9ZM227.789 51.38C227.789 51.22 227.729 51.16 227.589 51.12C227.409 51.08 227.189 51.04 227.029 51.04C225.909 51.04 225.229 51.54 224.609 52.32L224.589 51.68C224.589 51.4 224.409 51.3 224.089 51.3H222.809C222.509 51.3 222.309 51.4 222.309 51.8V54.26V60.5C222.309 60.84 222.469 61 222.789 61H224.249C224.589 61 224.729 60.82 224.729 60.5V54.14C225.229 53.54 225.969 53.18 226.649 53.18C226.829 53.18 227.029 53.2 227.189 53.24C227.229 53.24 227.249 53.24 227.269 53.24C227.429 53.24 227.529 53.16 227.549 52.98L227.769 51.56C227.789 51.5 227.789 51.44 227.789 51.38ZM237.823 60.44V51.76C237.823 51.4 237.643 51.3 237.323 51.3H235.903C235.583 51.3 235.403 51.42 235.403 51.76V58.14C234.803 58.68 233.843 59.1 233.083 59.1C231.883 59.1 231.603 58.34 231.603 57.24V51.76C231.603 51.4 231.423 51.3 231.103 51.3H229.703C229.383 51.3 229.183 51.42 229.183 51.76V57.66C229.183 59.82 230.103 61.24 232.343 61.24C233.503 61.24 234.603 60.84 235.523 60.1L235.543 60.6C235.563 60.86 235.763 61 236.023 61H237.303C237.703 61 237.823 60.86 237.823 60.44Z" fill="white"/>
<path d="M19.9854 42.083H18.2759L13.7174 48.9208L11.4381 54.0491L10.8683 66.5851L12.0079 68.8643L16.5665 72.853L22.8344 76.8417L28.5326 78.5512L33.6609 80.8304H38.7893L42.2082 83.1097L46.7667 84.2493L50.7554 85.9588L51.3252 83.6795H49.6158L47.9063 82.5399L42.2082 81.4003L39.3591 79.121H33.6609L28.5326 76.8417L22.8344 75.1323L16.5665 71.1436L12.5778 67.1549L13.1476 55.1888L14.857 50.0604L18.2759 44.3623L19.9854 42.083Z" fill="white"/>
<path d="M55.3139 64.8759L54.1743 70.574L55.8837 70.0042V66.0155L57.5932 64.3061L58.163 62.0268L60.4423 60.8872L62.1517 58.0381L64.431 53.4796V51.7701H62.7215L62.1517 55.189L61.0121 58.0381L59.8724 59.7476L57.5932 60.8872L56.4535 63.7363L55.3139 64.8759Z" fill="white"/>
<path d="M66.71 23.849H82.0504L81.5252 24.4188H67.2798H61.0118L59.8722 24.9886L62.7213 27.2679L65.0005 38.6642L65.5703 42.0831L66.71 43.2227H72.9779L72.4081 43.7925H68.4194H65.5703L64.4307 42.0831L63.8609 38.6642L61.5816 27.2679L58.7325 24.9886L60.442 23.849H66.71Z" fill="white"/>
<path d="M54.1742 95.0759L53.6044 97.925C58.7327 112.17 72.4083 112.74 77.5366 102.484L78.1065 100.774C71.8385 113.31 59.3026 111.031 54.1742 95.0759Z" fill="white"/>
<path d="M64.4313 67.7251L64.4313 66.0157C55.884 67.7251 50.1856 79.691 53.6044 97.925L54.1743 95.0759C53.6044 83.1095 54.1745 70.5744 64.4313 67.7251Z" fill="white"/>
<path d="M60.4421 96.2157C61.7773 97.3284 64.2352 99.0916 65.5704 100.204C66.4934 101.31 65.7818 101.001 60.442 97.3552C51.3251 76.2721 74.1177 64.8759 75.2572 89.3777L74.6874 89.9476C74.1177 71.1439 55.8836 72.2835 60.4421 96.2157Z" fill="white"/>
<path d="M95.7706 100.204C87.7931 111.601 82.095 110.461 70.1289 109.891L72.978 110.461C87.1692 114.474 91.0163 110.495 95.7706 100.204Z" fill="white"/>
<path d="M144.205 99.0647C143.977 98.7532 164.149 113.88 177.254 96.2156C172.696 109.891 151.043 108.752 144.205 99.0647Z" fill="white"/>
<path d="M66.1404 64.8755L65.0007 67.1547L68.9894 66.5849C74.7305 67.2673 76.3082 78.3671 79.2461 97.355C77.6329 78.9391 77.2172 67.3227 69.5593 64.8755H66.1404Z" fill="white"/>
<path d="M8.87945 80.4967L8.3586 83.3551C13.7306 97.5104 27.4139 97.8455 32.3655 87.5024L32.9059 85.7834C26.8539 98.4251 14.2808 96.3612 8.87945 80.4967Z" fill="white"/>
<path d="M13.1475 55.1888L13.7173 53.4793C7.44941 56.8983 4.62723 65.1818 8.35842 83.3546L8.87928 80.4961C8.10421 68.5412 6.87956 58.6076 13.1475 55.1888Z" fill="white"/>
<path d="M38.7822 83.2568C35.1263 93.8574 35.2028 94.8996 23.3388 96.5601L26.2441 96.5914C38.2124 98.072 38.7822 84.9663 38.7822 83.2568Z" fill="white"/>
<path d="M106.597 90.5174C90.6948 90.9825 86.0095 90.678 83.2349 89.3777C83.333 90.9297 90.3879 91.466 107.167 92.2268C109.882 91.0371 113.284 88.2199 121.412 80.8305L171.556 79.1211C176.569 87.4279 178.929 90.1789 181.243 87.0985C178.685 89.8665 176.115 84.8192 171.556 77.9814L120.843 79.1211C114.414 84.9994 110.833 88.2585 106.597 90.5174Z" fill="white"/>
<path d="M178.394 66.0154C139.895 69.0812 118.563 68.8644 80.3855 64.3059C92.3694 66.6732 99.3928 67.6269 112.295 68.8644C126.172 70.0431 133.915 70.2755 147.624 69.4342C159.809 68.6993 166.509 67.8177 178.394 66.0154Z" fill="white"/>
<path d="M77.5365 56.8977C87.4125 52.4043 97.7762 55.2619 115.714 59.7468C95.7706 56.3284 79.7131 55.5309 83.2347 58.0374L87.2234 61.4562C90.1008 62.6992 91.9103 63.2966 96.3404 63.7355L107.737 64.8751C97.3712 64.4998 89.4144 65.2283 85.5139 62.0261L79.8158 58.0374L77.5365 56.8977Z" fill="white"/>
<path d="M149.903 59.1779C155.934 59.4877 158.798 59.7204 163.009 60.3175C157.255 60.7303 154.007 60.6705 148.194 60.3175C144.927 58.6875 143.041 59.3539 139.646 61.4571L117.993 60.3175C126.31 59.9766 130.54 60.1083 139.646 59.1779C143.12 57.2526 145.172 56.5532 149.903 59.1779Z" fill="white"/>
<path d="M164.718 59.1775L172.696 54.619C171.262 56.5678 169.909 57.7121 167.568 59.7474C168.437 60.9936 168.962 61.6382 170.417 62.0266H177.254C174.828 63.3375 173.3 63.9235 169.847 64.3059C166.538 62.7661 165.72 61.5346 164.718 59.1775Z" fill="white" stroke="white" stroke-width="0.5"/>
<path d="M82.095 96.2155C80.2819 71.6473 77.2212 63.4461 66.71 62.5964L68.4195 63.7361C75.9827 65.1333 79.246 72.8531 80.3856 97.925C116.672 100.622 139.346 99.4837 182.382 94.5061C185.474 90.6588 183.522 77.9814 181.243 68.8644L181.252 68.9055C182.908 76.5083 183.839 80.7838 182.952 90.5174L181.813 93.3665C142.511 97.5885 120.654 98.4229 82.095 96.2155Z" fill="white"/>
<path d="M82.665 21V22.1397C95.4545 22.3369 102.652 22.6029 115.714 24.419C123.246 27.357 128.911 31.3991 142.496 44.3625C152.62 47.0333 158.211 48.1855 168.137 50.0606C173.835 52.3399 177.636 56.0273 181.243 66.5853C178.964 57.4682 176.261 52.4585 168.137 48.921C158.537 46.9984 153.179 46.0782 143.635 43.2229C135.088 34.6756 125.229 26.1716 115.714 22.7095C103.271 20.9833 95.5364 21.6361 82.665 21Z" fill="white"/>
<path d="M82.095 23.8491L81.5252 24.4189C95.2711 24.8221 102.841 25.2765 115.714 27.1414C120.426 29.3029 135.658 41.5134 134.518 42.653C111.66 41.1362 98.3603 41.3753 74.6874 42.653L73.5478 43.7926C104.07 42.6025 121.412 43.2228 140.786 45.5021C126.2 30.4788 121.867 27.858 115.714 25.5586C104.524 23.9693 97.0983 23.6313 82.095 23.8491Z" fill="white"/>
<path d="M82.095 23.8492L81.5252 24.4188C67.7792 24.822 62.4888 24.1963 49.6155 26.0613C44.9035 28.2228 28.5323 40.9435 29.672 42.0832C29.1022 44.4219 67.2798 43.2823 90.6422 42.1427L91.7818 43.2823C60.442 45.5021 36.5098 45.5021 24.5436 44.4219C39.1293 29.3986 43.4622 26.7779 49.6155 24.4784C60.8057 22.8891 67.0917 23.6313 82.095 23.8492Z" fill="white"/>
<path d="M57.5932 21H82.6651V22.1396H57.5932L50.7554 23.2793L45.6271 24.4189L39.929 27.268L33.661 31.8265L27.9628 36.9548L24.5439 39.8039L21.1251 41.5133H18.8458L23.9741 39.2341L27.393 35.8152L33.661 30.6869L39.3591 26.1283L45.0573 23.2793L50.7554 22.1396L57.5932 21Z" fill="white"/>
<path d="M41.6382 41.514C45.627 31.8265 57.5931 33.5359 60.4422 43.2228L58.7327 43.2234C55.3138 33.5359 43.3477 35.2454 42.7779 43.7926H41.6382C41.4157 43.1251 41.5027 41.9205 41.6382 41.514Z" fill="white"/>
<path d="M15.1771 81.5473C17.9619 83.6759 18.9338 84.5022 20.8753 86.1058C18.6262 84.5939 17.3711 83.7898 15.1771 82.6869C12.3107 75.9072 10.7074 74.4141 13.8913 67.8717L14.8572 69.4342C12.4668 73.256 13.7068 75.021 15.1771 81.5473Z" fill="white"/>
</svg>
