<svg width="269" height="135" viewBox="0 0 269 135" fill="none" xmlns="http://www.w3.org/2000/svg">
<rect width="269" height="135" rx="10" fill="#EEAE30"/>
<path d="M165.089 36.46L164.489 23.6C164.469 23.28 164.349 23.16 164.029 23.16H162.849C162.489 23.16 162.329 23.3 162.209 23.6L157.989 33.48H157.949L153.329 23.6C153.189 23.3 153.049 23.16 152.649 23.16H151.469C151.149 23.16 151.009 23.28 150.989 23.7L150.489 36.48C150.469 36.86 150.629 37 151.009 37H152.369C152.729 37 152.909 36.94 152.909 36.5L153.089 28.22H153.129L156.909 36.62C157.049 36.94 157.229 37 157.529 37H158.229C158.449 37 158.649 36.96 158.769 36.64L162.169 28.22H162.209L162.489 36.34C162.509 36.8 162.589 37 163.009 37H164.629C165.009 37 165.109 36.8 165.089 36.46ZM176.83 32.14C176.83 29.2 175.33 27.04 172.07 27.04C168.95 27.04 167.19 29.24 167.19 32.12C167.19 35.04 168.69 37.24 171.95 37.24C175.07 37.24 176.83 35.02 176.83 32.14ZM174.33 32.14C174.33 33.78 173.73 35.34 171.97 35.34C170.19 35.34 169.69 33.72 169.69 32.08C169.69 30.48 170.27 28.94 172.05 28.94C173.81 28.94 174.33 30.5 174.33 32.14ZM184.806 36.4C184.806 36.36 184.806 36.34 184.786 36.28L184.586 35.28C184.546 35.12 184.466 35.04 184.326 35.04C184.266 35.04 184.206 35.06 184.126 35.08C183.766 35.2 183.346 35.32 182.846 35.32C182.366 35.32 182.086 35.16 181.906 34.9C181.686 34.58 181.646 34.14 181.646 33.54V28.96H183.886C184.126 28.96 184.286 28.82 184.286 28.58V27.64C184.286 27.38 184.146 27.3 183.906 27.3H181.646V24.9C181.646 24.6 181.526 24.46 181.266 24.46C181.226 24.46 181.206 24.46 181.166 24.46L179.726 24.64C179.406 24.68 179.226 24.78 179.226 25.12V27.3H178.206C177.966 27.3 177.846 27.46 177.846 27.7V28.46C177.846 28.88 177.906 28.96 178.286 28.96H179.226V33.42C179.226 34.88 179.246 35.7 179.866 36.4C180.366 36.98 181.246 37.24 182.266 37.24C183.066 37.24 183.886 37.04 184.506 36.78C184.706 36.7 184.806 36.6 184.806 36.4ZM195.424 32.14C195.424 29.2 193.924 27.04 190.664 27.04C187.544 27.04 185.784 29.24 185.784 32.12C185.784 35.04 187.284 37.24 190.544 37.24C193.664 37.24 195.424 35.02 195.424 32.14ZM192.924 32.14C192.924 33.78 192.324 35.34 190.564 35.34C188.784 35.34 188.284 33.72 188.284 32.08C188.284 30.48 188.864 28.94 190.644 28.94C192.404 28.94 192.924 30.5 192.924 32.14ZM202.84 27.38C202.84 27.22 202.78 27.16 202.64 27.12C202.46 27.08 202.24 27.04 202.08 27.04C200.96 27.04 200.28 27.54 199.66 28.32L199.64 27.68C199.64 27.4 199.46 27.3 199.14 27.3H197.86C197.56 27.3 197.36 27.4 197.36 27.8V30.26V36.5C197.36 36.84 197.52 37 197.84 37H199.3C199.64 37 199.78 36.82 199.78 36.5V30.14C200.28 29.54 201.02 29.18 201.7 29.18C201.88 29.18 202.08 29.2 202.24 29.24C202.28 29.24 202.3 29.24 202.32 29.24C202.48 29.24 202.58 29.16 202.6 28.98L202.82 27.56C202.84 27.5 202.84 27.44 202.84 27.38ZM218.978 32.96C218.978 30.94 217.538 29.64 215.638 29.5V29.48C217.098 29.16 217.898 27.94 217.898 26.54C217.898 24.14 216.098 23.16 212.878 23.16H209.878C209.458 23.16 209.278 23.26 209.278 23.68V36.42C209.278 36.84 209.378 37 209.798 37H213.518C216.358 37 218.978 36.2 218.978 32.96ZM215.378 26.84C215.378 28.46 214.338 28.84 212.878 28.84H211.838V25.12H212.958C214.358 25.12 215.378 25.54 215.378 26.84ZM216.358 32.88C216.358 33.84 215.898 34.46 215.198 34.76C214.698 34.96 214.018 35.02 213.318 35.02H211.838V30.66C212.018 30.66 213.018 30.66 213.158 30.66C213.998 30.66 214.678 30.72 215.298 31.02C215.938 31.34 216.358 31.94 216.358 32.88ZM230.471 36.62V35.68C230.471 35.42 230.351 35.34 230.111 35.34H229.951C229.851 35.34 229.771 35.32 229.711 35.26C229.631 35.16 229.591 34.96 229.591 34.68V27.74C229.591 27.44 229.431 27.3 229.171 27.3H227.771C227.531 27.3 227.371 27.44 227.351 27.66L227.311 28.2C226.811 27.52 225.811 27.04 224.751 27.04C222.511 27.04 220.431 28.86 220.431 32.32C220.431 34.92 221.711 37.24 224.531 37.24C225.631 37.24 226.931 36.56 227.431 35.82H227.471C227.611 36.5 228.071 37 229.111 37H230.071C230.311 37 230.471 36.86 230.471 36.62ZM227.171 33.9C226.871 34.52 226.031 35.26 225.051 35.26C223.571 35.26 222.931 33.84 222.931 32.16C222.931 30.06 223.971 29.02 225.191 29.02C225.951 29.02 226.771 29.46 227.171 30.04V33.9ZM237.683 27.38C237.683 27.22 237.623 27.16 237.483 27.12C237.303 27.08 237.083 27.04 236.923 27.04C235.803 27.04 235.123 27.54 234.503 28.32L234.483 27.68C234.483 27.4 234.303 27.3 233.983 27.3H232.703C232.403 27.3 232.203 27.4 232.203 27.8V30.26V36.5C232.203 36.84 232.363 37 232.683 37H234.143C234.483 37 234.623 36.82 234.623 36.5V30.14C235.123 29.54 235.863 29.18 236.543 29.18C236.723 29.18 236.923 29.2 237.083 29.24C237.123 29.24 237.143 29.24 237.163 29.24C237.323 29.24 237.423 29.16 237.443 28.98L237.663 27.56C237.683 27.5 237.683 27.44 237.683 27.38ZM247.718 36.44V27.76C247.718 27.4 247.538 27.3 247.218 27.3H245.798C245.478 27.3 245.298 27.42 245.298 27.76V34.14C244.698 34.68 243.738 35.1 242.978 35.1C241.778 35.1 241.498 34.34 241.498 33.24V27.76C241.498 27.4 241.318 27.3 240.998 27.3H239.598C239.278 27.3 239.078 27.42 239.078 27.76V33.66C239.078 35.82 239.998 37.24 242.238 37.24C243.398 37.24 244.498 36.84 245.418 36.1L245.438 36.6C245.458 36.86 245.658 37 245.918 37H247.198C247.598 37 247.718 36.86 247.718 36.44ZM174.612 47.4C174.612 47.24 174.472 47.16 174.232 47.16H172.792C172.412 47.16 172.252 47.26 172.092 47.58L169.252 53.2H169.212L166.332 47.54C166.192 47.28 165.952 47.16 165.592 47.16H163.772C163.552 47.16 163.412 47.28 163.412 47.44C163.412 47.5 163.432 47.56 163.472 47.64L167.812 55.38V60.5C167.812 60.84 167.972 61 168.272 61H169.952C170.252 61 170.412 60.84 170.412 60.54V55.28L174.532 47.66C174.592 47.56 174.612 47.46 174.612 47.4ZM183.869 60.62V59.68C183.869 59.42 183.749 59.34 183.509 59.34H183.349C183.249 59.34 183.169 59.32 183.109 59.26C183.029 59.16 182.989 58.96 182.989 58.68V51.74C182.989 51.44 182.829 51.3 182.569 51.3H181.169C180.929 51.3 180.769 51.44 180.749 51.66L180.709 52.2C180.209 51.52 179.209 51.04 178.149 51.04C175.909 51.04 173.829 52.86 173.829 56.32C173.829 58.92 175.109 61.24 177.929 61.24C179.029 61.24 180.329 60.56 180.829 59.82H180.869C181.009 60.5 181.469 61 182.509 61H183.469C183.709 61 183.869 60.86 183.869 60.62ZM180.569 57.9C180.269 58.52 179.429 59.26 178.449 59.26C176.969 59.26 176.329 57.84 176.329 56.16C176.329 54.06 177.369 53.02 178.589 53.02C179.349 53.02 180.169 53.46 180.569 54.04V57.9ZM200.082 60.5V55.44C200.082 54.16 199.982 53.28 199.602 52.54C199.182 51.76 198.262 51.04 196.802 51.04C195.582 51.04 194.282 51.48 193.382 52.34C192.922 51.58 192.062 51.04 190.842 51.04C189.802 51.04 188.722 51.46 187.902 52.18L187.882 51.68C187.862 51.4 187.682 51.3 187.382 51.3H186.082C185.782 51.3 185.602 51.44 185.602 51.76V60.5C185.602 60.86 185.762 61 186.122 61H187.522C187.862 61 188.022 60.86 188.022 60.5V54.12C188.662 53.56 189.462 53.12 190.242 53.12C191.462 53.12 191.682 53.96 191.682 55.02V60.5C191.682 60.86 191.842 61 192.202 61H193.522C193.862 61 194.002 60.86 194.002 60.5V57.16C194.002 56.88 193.962 54.2 193.922 54.02C194.542 53.52 195.422 53.12 196.182 53.12C197.402 53.12 197.682 53.94 197.682 55.02V60.5C197.682 60.86 197.842 61 198.202 61H199.602C199.942 61 200.082 60.86 200.082 60.5ZM212.014 60.62V59.68C212.014 59.42 211.894 59.34 211.654 59.34H211.494C211.394 59.34 211.314 59.32 211.254 59.26C211.174 59.16 211.134 58.96 211.134 58.68V51.74C211.134 51.44 210.974 51.3 210.714 51.3H209.314C209.074 51.3 208.914 51.44 208.894 51.66L208.854 52.2C208.354 51.52 207.354 51.04 206.294 51.04C204.054 51.04 201.974 52.86 201.974 56.32C201.974 58.92 203.254 61.24 206.074 61.24C207.174 61.24 208.474 60.56 208.974 59.82H209.014C209.154 60.5 209.614 61 210.654 61H211.614C211.854 61 212.014 60.86 212.014 60.62ZM208.714 57.9C208.414 58.52 207.574 59.26 206.594 59.26C205.114 59.26 204.474 57.84 204.474 56.16C204.474 54.06 205.514 53.02 206.734 53.02C207.494 53.02 208.314 53.46 208.714 54.04V57.9ZM222.486 60.6V54.62C222.486 52.46 221.566 51.04 219.326 51.04C218.266 51.04 217.006 51.42 216.166 52.12V47.1C216.166 46.82 216.046 46.72 215.826 46.72C215.746 46.72 215.646 46.72 215.566 46.74L214.186 46.92C213.906 46.96 213.746 47.06 213.746 47.42V60.64C213.746 60.9 213.826 61 214.066 61H215.786C216.086 61 216.166 60.9 216.166 60.6V54.12C216.786 53.58 217.786 53.16 218.566 53.16C219.766 53.16 220.066 53.96 220.066 55.04V60.6C220.066 60.92 220.126 61 220.406 61H222.166C222.426 61 222.486 60.9 222.486 60.6ZM234.436 60.62V59.68C234.436 59.42 234.316 59.34 234.076 59.34H233.916C233.816 59.34 233.736 59.32 233.676 59.26C233.596 59.16 233.556 58.96 233.556 58.68V51.74C233.556 51.44 233.396 51.3 233.136 51.3H231.736C231.496 51.3 231.336 51.44 231.316 51.66L231.276 52.2C230.776 51.52 229.776 51.04 228.716 51.04C226.476 51.04 224.396 52.86 224.396 56.32C224.396 58.92 225.676 61.24 228.496 61.24C229.596 61.24 230.896 60.56 231.396 59.82H231.436C231.576 60.5 232.036 61 233.076 61H234.036C234.276 61 234.436 60.86 234.436 60.62ZM231.136 57.9C230.836 58.52 229.996 59.26 229.016 59.26C227.536 59.26 226.896 57.84 226.896 56.16C226.896 54.06 227.936 53.02 229.156 53.02C229.916 53.02 230.736 53.46 231.136 54.04V57.9Z" fill="white"/>
<path d="M56.1137 17.4688C56.1137 17.4688 62.13 21.0785 62.7316 22.2817L56.7153 19.2739L56.1137 17.4688Z" fill="#002F5F"/>
<path d="M26.0325 63.7938L27.8373 66.802H30.8455L27.8373 63.1922L26.6341 60.7857V57.7776L29.6422 57.176L32.0487 56.5743C31.3234 54.4806 30.6208 53.4477 29.0406 51.7614V55.3711L26.6341 56.5743H24.8292V60.7857L26.0325 63.7938Z" fill="#002F5F"/>
<path d="M38.0649 69.2085L37.4633 74.0215C37.4633 74.0215 37.4786 78.7931 38.0649 75.8264C38.6513 72.8596 39.2745 71.388 41.0731 69.2085H38.0649Z" fill="#002F5F" stroke="#002F5F" stroke-width="0.5"/>
<path d="M36.8617 78.2329L38.6666 81.241V81.8426L39.8698 80.0377L38.6666 77.6312L35.6585 74.0215L32.6503 69.8101L30.2438 67.4036L27.8373 66.802L26.6341 68.0053L24.8292 68.6069V72.8182L27.8373 75.8264L30.8455 79.4361L35.0568 83.6475L35.6585 81.8426L35.0568 81.241L32.0487 78.8345L29.0406 75.2247L27.8373 71.615L29.0406 69.8101L31.4471 71.615L33.252 75.2247L36.8617 78.2329Z" fill="#002F5F"/>
<path d="M22.4227 93.875L29.0406 99.2896L29.6422 99.8913L30.2439 96.8831L22.4227 90.2653L20.0162 87.2572L18.2114 83.6474L16.4065 80.6393L17.0081 76.4279L20.0162 77.0295L23.626 77.6312L27.8374 82.4442L30.2439 85.4523L33.252 89.062L34.4552 87.2572V84.249L30.8455 80.6393L27.8374 77.0295L23.626 74.0214H19.4146L18.2114 71.0133L14 71.6149V82.4442L15.8049 84.8507L18.2114 89.062L22.4227 93.875Z" fill="#002F5F"/>
<path d="M33.8536 45.1435C39.163 44.5683 42.9864 45.6762 50.699 45.7453L50.0974 47.5502L48.8942 48.1518L45.8861 49.3551L41.6747 50.5583L34.4552 49.3551C34.2202 50.5298 34.6901 52.3917 34.4552 53.5664C35.713 55.2926 36.4752 56.1406 38.0649 57.1762C40.3027 59.6877 41.6228 60.858 44.0812 62.5908L43.4796 64.3957L36.2601 59.5827L33.2519 57.1762C32.0909 56.2856 31.5363 55.666 30.8454 54.168C30.1306 52.7699 27.0277 51.2272 27.2357 49.3551C27.4694 48.1897 26.4613 46.3293 27.2357 45.1437C28.0319 44.6514 32.7749 45.1234 33.8536 45.1435Z" fill="#002F5F"/>
<path d="M56.1137 26.4932L57.9186 24.6884L56.7153 30.103L56.1137 31.3062H51.3007C49.6575 31.2634 47.0893 31.9078 51.3007 30.103L54.3088 29.5013C55.4836 28.5616 55.5121 27.6965 56.1137 26.4932Z" fill="#002F5F" stroke="#002F5F" stroke-width="0.5"/>
<path d="M90.4063 7.84208L89.203 12.0535L91.0079 9.04533C93.4768 8.45862 94.7922 8.46797 97.0241 9.04533C96.5964 12.083 95.4579 13.4515 92.8127 15.6632C96.368 14.3529 97.8295 12.9567 98.829 8.4437C98.6023 7.73091 98.3061 7.49937 97.6257 7.24046C94.6424 6.76629 93.0868 7.00683 90.4063 7.84208Z" fill="#002F5F" stroke="#002F5F" stroke-width="0.5"/>
<path d="M59.8335 13.1486L59.1218 18.0704L58.37 14.0169C55.8462 13.751 53.831 12.671 51.6914 13.5293C52.5044 16.4872 53.8087 17.6987 56.7152 19.5536C53.0214 18.7092 51.3933 17.5116 49.8243 13.1636C49.9579 12.4277 50.222 12.1601 50.8637 11.8162C54.8849 10.6434 57.0677 11.8216 59.8335 13.1486Z" fill="#002F5F" stroke="#002F5F" stroke-width="0.5"/>
<path d="M86.7965 16.2655C88.4412 15.0908 91.0079 12.6558 91.0079 12.6558" stroke="#002F5F"/>
<path d="M90.4063 16.2655C92.051 15.0908 91.6096 13.859 91.6096 13.859" stroke="#002F5F"/>
<path d="M115.073 46.3467L115.674 50.5581C109.892 37.2568 106.094 30.5573 98.829 19.2737C91.6095 15.6639 83.1868 16.8039 77.7722 20.4769V21.6802L79.577 24.0867C72.3576 22.8834 67.9299 21.99 60.9267 23.485L61.5283 22.2818C68.5343 21.9192 72.0554 22.2295 77.7722 23.485L76.5689 21.6802V19.2737C86.0846 15.1436 91.2496 14.593 100.032 18.0704C107.474 28.8499 110.791 35.0595 115.073 46.3467Z" fill="#002F5F" stroke="#002F5F" stroke-width="0.5"/>
<path d="M96.4225 40.3305C90.8239 32.4618 86.7965 28.8996 80.1786 23.485C85.2608 30.1946 90.0003 34.3703 96.4225 40.3305Z" fill="#002F5F" stroke="#002F5F" stroke-width="0.5"/>
<path d="M81.3819 27.6964L80.7803 25.8915L81.9835 28.298V31.9077C91.0939 38.8922 96.443 42.0769 106.65 45.7451C107.906 44.9189 108.576 44.3079 109.658 42.737C110.123 41.9483 110.232 41.0954 110.26 39.1272L110.861 42.737C108.979 45.2142 108.088 46.0283 106.65 46.9483C95.1575 43.5141 89.666 40.0777 80.7803 32.5093L81.3819 27.6964Z" fill="#002F5F" stroke="#002F5F" stroke-width="0.5"/>
<path d="M97.6258 62.5906C87.2476 57.4467 81.0779 52.6227 69.951 43.3386L72.3575 46.3467C85.2515 58.7499 90.2789 61.2945 97.6258 62.5906Z" fill="#002F5F" stroke="#002F5F" stroke-width="0.5"/>
<path d="M61.5283 37.924C66.8644 49.6456 70.113 56.072 77.1706 66.8019C71.8705 55.9342 68.8341 49.5865 63.3332 37.924L66.3413 34.3142C75.5378 32.0669 77.44 30.7134 80.7803 28.298C75.2925 31.0259 72.1798 31.9623 66.3413 28.8996L57.9186 30.7045H66.3413L69.9511 31.9077L65.1381 33.111L61.5283 37.924Z" fill="#002F5F" stroke="#002F5F" stroke-width="0.5"/>
<path d="M51.3007 46.3468L50.6991 48.1517C53.251 49.4503 54.6974 50.4864 57.2291 52.3001L57.317 52.363L62.13 52.9647C71.1543 60.1842 71.7559 66.2004 75.3657 67.4036L73.5608 65.5988C71.5602 60.8616 70.7216 58.3201 62.7316 51.1598L57.9186 50.5582L51.3007 46.3468Z" fill="#002F5F"/>
<path d="M75.3657 67.4036L73.5608 65.5988C71.5602 60.8616 70.7216 58.3201 62.7316 51.1598L57.9186 50.5582L51.3007 46.3468L50.6991 48.1517C53.2804 49.4652 54.7306 50.5102 57.317 52.363L62.13 52.9647C71.1543 60.1842 71.7559 66.2004 75.3657 67.4036ZM75.3657 67.4036C74.1909 66.4639 76.5404 68.3434 75.3657 67.4036Z" stroke="#002F5F" stroke-width="0.5"/>
<path d="M60.1556 67.3763C55.9699 66.7003 53.4731 66.2971 48.8942 64.9972C52.2442 67.0876 54.6255 67.9856 59.7234 69.2086C61.5426 69.4421 62.3977 69.3522 63.9348 69.2086C66.9578 67.3664 68.885 66.9156 72.3575 66.2004C68.8094 65.9322 66.8267 65.9864 63.3331 67.4037H60.325L60.1556 67.3763Z" fill="#002F5F" stroke="#002F5F" stroke-width="0.5"/>
<path d="M47.0893 68.0052L42.2763 68.6068L42.8779 67.4036L47.0893 68.0052Z" fill="#002F5F" stroke="#002F5F" stroke-width="0.5"/>
<path d="M44.0812 64.9971C50.9728 70.0422 58.5701 72.5198 71.1543 77.0296C59.86 71.9754 53.3901 69.1918 44.6828 63.1923L44.0812 64.9971Z" fill="#002F5F" stroke="#002F5F" stroke-width="0.5"/>
<path d="M119.886 69.2085L116.878 74.6231L119.866 69.1451C118.102 63.5984 116.615 61.2305 113.87 57.176L111.463 60.7857C110.433 60.4087 109.894 60.1591 109.057 59.5825C106.87 59.8974 105.672 60.2295 103.642 61.3873C94.4868 59.7965 91.6095 54.7695 86.7965 45.7451C90.0858 49.7392 91.3283 51.9786 94.6176 55.9727C100.245 60.0449 103.075 60.7473 107.252 57.7776H109.057L110.861 58.9809C113.891 53.8816 113.654 51.1494 112.065 46.3467L107.853 50.5581H106.048L91.6095 45.1435H87.9998L91.0079 43.9402L106.65 49.3549C109.039 47.3312 110.198 45.9827 112.065 43.3386C114.768 47.334 115.782 49.9609 115.073 56.5744C118.051 60.8346 119.374 63.304 120.487 68.0052L119.866 69.1451C119.872 69.1662 119.879 69.1873 119.886 69.2085Z" fill="#002F5F" stroke="#002F5F" stroke-width="0.5"/>
<path d="M86.195 60.7858L81.382 70.4118C83.8548 67.0778 85.1103 65.1568 87.9998 61.989L95.2193 66.2004L87.3982 59.5825C86.9206 59.7682 86.6529 59.987 86.195 60.7858Z" fill="#002F5F" stroke="#002F5F" stroke-width="0.5"/>
<path d="M87.3981 72.8182C83.8817 82.399 82.1339 87.9135 79.577 98.0865C83.3263 87.7984 85.4314 82.2158 89.203 74.0215C93.6747 70.0777 96.3464 68.337 101.235 65.5988H107.853C109.455 64.8903 110.363 64.595 112.065 64.9971C114.05 66.661 114.723 67.7589 115.674 69.8101L116.276 72.8182L116.878 69.2085L112.666 63.1923H109.658C108.492 63.8255 107.834 64.1231 106.65 64.3955C104.323 64.3146 103 64.1421 100.634 63.7939C94.4472 67.2821 91.8152 69.2675 87.3981 72.8182Z" fill="#002F5F" stroke="#002F5F" stroke-width="0.5"/>
<path d="M94.016 83.0457L95.2192 72.8181V83.0457L98.829 93.2733C101.235 95.7269 101.837 96.8831 101.837 95.0782V85.4522C103.04 83.0457 105.049 82.9569 107.853 83.6474C114.537 84.9775 122.894 86.0539 122.894 84.249C119.403 80.1787 117.313 78.2046 113.268 75.2246L111.463 71.6149C109.743 73.1331 108.686 73.9285 106.65 75.2246L98.2274 72.8181C101.101 73.4109 102.35 73.8116 107.252 74.0214C108.897 72.3805 109.819 71.6411 111.463 70.4116C112.3 71.5516 112.458 71.917 115.073 74.623C119.376 78.0157 121.353 80.2119 124.699 84.249V85.4522C120.487 87.8587 114.736 86.892 107.252 84.8506C104.513 84.6612 103.667 85.115 103.04 86.6555C103.04 89.6636 104.244 97.4847 103.04 97.4847C101.837 98.0863 99.4973 96.0014 97.6257 93.875L94.016 83.0457Z" fill="#002F5F" stroke="#002F5F" stroke-width="0.5"/>
<path d="M122.292 87.8589C138.536 114.33 112.065 146.216 92.8127 112.525C104.845 140.802 130.715 127.566 128.91 102.899C128.309 97.4849 126.504 92.0703 122.292 87.8589Z" fill="#002F5F" stroke="#002F5F" stroke-width="0.5"/>
<path d="M103.642 90.8669C106.251 89.1833 107.864 89.0868 110.861 89.6636C109.057 87.2571 104.244 87.8587 103.642 90.8669Z" fill="#002F5F"/>
<path d="M103.642 90.8669C106.251 89.1833 107.864 89.0868 110.861 89.6636C109.057 87.2571 104.244 87.8587 103.642 90.8669ZM103.642 90.8669C103.407 91.3368 103.877 90.397 103.642 90.8669Z" stroke="#002F5F" stroke-width="0.5"/>
<path d="M107.962 116.811C110.977 117.552 112.533 117.118 115.179 115.596C114.257 118.459 109.511 119.459 107.962 116.811Z" fill="#002F5F"/>
<path d="M107.962 116.811C110.977 117.552 112.533 117.118 115.179 115.596C114.257 118.459 109.511 119.459 107.962 116.811ZM107.962 116.811C107.586 116.443 108.337 117.178 107.962 116.811Z" stroke="#002F5F" stroke-width="0.5"/>
<path d="M108.455 86.6556C131.317 107.712 106.048 141.403 94.016 106.509C96.9549 120.001 103.642 124.558 110.861 122.753C118.081 119.143 120.487 110.119 118.683 101.696C117.007 93.7272 112.666 88.6048 108.455 86.6556Z" fill="#002F5F" stroke="#002F5F" stroke-width="0.5"/>
<path d="M95.8209 104.704C98.2274 115.533 107.252 119.745 110.861 108.314C111.458 100.558 110.096 97.9433 104.976 92.8023C104.821 92.7122 104.767 92.6718 104.845 92.6718C104.889 92.7155 104.932 92.759 104.976 92.8023C106.015 93.4071 111.619 96.2485 112.666 104.103C113.268 111.924 108.455 115.533 107.252 116.135C100.032 118.542 97.3304 112.971 95.8209 104.704Z" fill="#002F5F" stroke="#002F5F" stroke-width="0.5"/>
<path d="M92.2112 107.712C93.1758 101.831 94.0008 98.6881 95.8209 93.2734C92.2111 95.6799 90.4063 104.103 92.2112 107.712Z" fill="#002F5F" stroke="#002F5F" stroke-width="0.5"/>
<path d="M91.6095 110.119C82.6809 111.529 73.7747 110.197 48.8942 102.899C58.0759 107.186 64.1826 109.305 78.9754 111.924C84.7655 111.411 87.6155 111.035 91.6095 110.119Z" fill="#002F5F" stroke="#002F5F" stroke-width="0.5"/>
<path d="M63.9348 99.2897C56.987 97.9254 52.8617 96.3277 45.2845 92.6718C50.6991 96.8832 59.7235 101.095 65.1381 101.095C72.9002 88.9018 75.6173 83.0616 80.1787 72.8182C73.8379 83.4689 70.2838 89.5148 63.9348 99.2897Z" fill="#002F5F" stroke="#002F5F" stroke-width="0.5"/>
<path d="M51.3007 80.6392C46.8681 80.4405 44.5223 80.79 40.4715 81.8424C44.6409 81.7136 48.2926 81.7554 50.6991 81.8424C53.7072 83.0456 62.5774 86.3427 69.9511 88.4603C62.6431 85.0871 54.3089 81.2408 51.3007 80.6392Z" fill="#002F5F"/>
<path d="M38.6666 84.8505C39.1428 82.7295 39.5488 82.1006 40.4715 81.8424M40.4715 81.8424C44.5223 80.79 46.8681 80.4405 51.3007 80.6392C54.3089 81.2408 62.6431 85.0871 69.9511 88.4603C62.5774 86.3427 53.7072 83.0456 50.6991 81.8424C48.2926 81.7554 44.6409 81.7136 40.4715 81.8424Z" stroke="#002F5F" stroke-width="0.5"/>
<path d="M36.2601 84.2491L35.7857 84.091L35.6997 84.349L35.8696 84.5614L36.2601 84.2491ZM36.8617 82.4442L37.2805 82.1711L36.7148 81.3037L36.3874 82.2861L36.8617 82.4442ZM45.8861 96.2816L46.3742 96.1731L46.3545 96.0845L46.3049 96.0084L45.8861 96.2816ZM46.6012 101.805C46.6611 102.074 46.9282 102.244 47.1978 102.184C47.4673 102.124 47.6373 101.857 47.5774 101.588L46.6012 101.805ZM36.7344 84.4072L37.336 82.6023L36.3874 82.2861L35.7857 84.091L36.7344 84.4072ZM36.4429 82.7173L45.4673 96.5547L46.3049 96.0084L37.2805 82.1711L36.4429 82.7173ZM45.8861 96.2816C45.398 96.39 45.398 96.39 45.398 96.3901C45.398 96.3901 45.398 96.3901 45.398 96.3902C45.398 96.3903 45.3981 96.3904 45.3981 96.3906C45.3982 96.391 45.3983 96.3917 45.3985 96.3924C45.3988 96.394 45.3994 96.3965 45.4001 96.3996C45.4015 96.4059 45.4036 96.4153 45.4063 96.4276C45.4118 96.4523 45.4199 96.4888 45.4304 96.536C45.4514 96.6303 45.4818 96.7675 45.5199 96.9387C45.596 97.2811 45.7023 97.7597 45.8234 98.3044C46.0655 99.3937 46.3663 100.747 46.6012 101.805L47.5774 101.588C47.3425 100.53 47.0416 99.1768 46.7996 98.0875C46.6785 97.5428 46.5722 97.0642 46.4961 96.7218C46.458 96.5506 46.4276 96.4134 46.4066 96.319C46.3961 96.2719 46.388 96.2354 46.3825 96.2107C46.3798 96.1983 46.3777 96.189 46.3763 96.1826C46.3756 96.1795 46.375 96.177 46.3747 96.1755C46.3745 96.1746 46.3744 96.1742 46.3743 96.1737C46.3743 96.1736 46.3742 96.1733 46.3742 96.1733C46.3742 96.1732 46.3742 96.1732 46.3742 96.1731C46.3742 96.1731 46.3742 96.1731 45.8861 96.2816ZM46.2765 95.9692L36.6505 83.9367L35.8696 84.5614L45.4956 96.5939L46.2765 95.9692Z" fill="#002F5F"/>
<path d="M39.2682 96.2816C40.8222 97.999 42.2371 98.4291 45.2845 98.6881" stroke="#002F5F" stroke-linecap="round"/>
<path d="M39.2682 98.688C41.0731 99.8912 41.0731 100.493 44.0812 101.094" stroke="#002F5F" stroke-linecap="round"/>
<path d="M39.2682 91.4686L41.0731 92.6719" stroke="#002F5F" stroke-linecap="round"/>
<path d="M39.2682 93.875C40.2963 94.9634 41.4025 95.3321 42.878 95.0782" stroke="#002F5F" stroke-linecap="round"/>
<path d="M37.4633 86.6556C37.7703 93.3105 37.4633 101.696 37.4633 101.696" stroke="#002F5F"/>
<path d="M34.4552 96.2816L33.9677 96.1706L33.9344 96.3168L33.987 96.4571L34.4552 96.2816ZM49.4958 105.204C49.7719 105.204 49.9958 104.98 49.9958 104.704C49.9958 104.428 49.7719 104.204 49.4958 104.204V105.204ZM33.4009 89.8759C33.8925 90.9247 34.1951 91.7324 34.3011 92.6458C34.4074 93.5613 34.3202 94.6215 33.9677 96.1706L34.9427 96.3925C35.308 94.7875 35.419 93.6033 35.2945 92.5306C35.1697 91.4558 34.8127 90.5316 34.3063 89.4515L33.4009 89.8759ZM33.987 96.4571C35.8142 101.33 37.8438 103.595 40.4463 104.571C41.726 105.051 43.1066 105.204 44.5948 105.242C46.062 105.279 47.7304 105.204 49.4958 105.204V104.204C47.6515 104.204 46.0862 104.28 44.6204 104.242C43.1757 104.205 41.9242 104.057 40.7974 103.635C38.5869 102.806 36.7059 100.859 34.9234 96.106L33.987 96.4571Z" fill="#002F5F"/>
<path d="M30.2439 101.095C39.0053 106.66 44.765 107.132 55.5121 106.509" stroke="#002F5F" stroke-linecap="round"/>
<path d="M30.8455 102.899C34.4552 108.314 37.4633 108.916 39.8698 106.509" stroke="#002F5F" stroke-linecap="round"/>
<path d="M29.0406 102.899C35.0568 114.932 43.4796 115.534 49.4958 107.712" stroke="#002F5F" stroke-linecap="round" stroke-linejoin="round"/>
<ellipse cx="83.5528" cy="73.8272" rx="2.9215" ry="1.0647" transform="rotate(44.7939 83.5528 73.8272)" fill="#002F5F"/>
<ellipse cx="75.3742" cy="71.3163" rx="3.98885" ry="0.744985" transform="rotate(115.944 75.3742 71.3163)" fill="#002F5F"/>
</svg>
