<svg width="210" height="130" viewBox="0 0 210 130" fill="none" xmlns="http://www.w3.org/2000/svg">
<rect width="210" height="130" rx="10" fill="url(#paint0_linear)"/>
<path d="M119.48 35.514L118.94 23.94C118.922 23.652 118.814 23.544 118.526 23.544H117.464C117.14 23.544 116.996 23.67 116.888 23.94L113.09 32.832H113.054L108.896 23.94C108.77 23.67 108.644 23.544 108.284 23.544H107.222C106.934 23.544 106.808 23.652 106.79 24.03L106.34 35.532C106.322 35.874 106.466 36 106.808 36H108.032C108.356 36 108.518 35.946 108.518 35.55L108.68 28.098H108.716L112.118 35.658C112.244 35.946 112.406 36 112.676 36H113.306C113.504 36 113.684 35.964 113.792 35.676L116.852 28.098H116.888L117.14 35.406C117.158 35.82 117.23 36 117.608 36H119.066C119.408 36 119.498 35.82 119.48 35.514ZM130.047 31.626C130.047 28.98 128.697 27.036 125.763 27.036C122.955 27.036 121.371 29.016 121.371 31.608C121.371 34.236 122.721 36.216 125.655 36.216C128.463 36.216 130.047 34.218 130.047 31.626ZM127.797 31.626C127.797 33.102 127.257 34.506 125.673 34.506C124.071 34.506 123.621 33.048 123.621 31.572C123.621 30.132 124.143 28.746 125.745 28.746C127.329 28.746 127.797 30.15 127.797 31.626ZM137.225 35.46C137.225 35.424 137.225 35.406 137.207 35.352L137.027 34.452C136.991 34.308 136.919 34.236 136.793 34.236C136.739 34.236 136.685 34.254 136.613 34.272C136.289 34.38 135.911 34.488 135.461 34.488C135.029 34.488 134.777 34.344 134.615 34.11C134.417 33.822 134.381 33.426 134.381 32.886V28.764H136.397C136.613 28.764 136.757 28.638 136.757 28.422V27.576C136.757 27.342 136.631 27.27 136.415 27.27H134.381V25.11C134.381 24.84 134.273 24.714 134.039 24.714C134.003 24.714 133.985 24.714 133.949 24.714L132.653 24.876C132.365 24.912 132.203 25.002 132.203 25.308V27.27H131.285C131.069 27.27 130.961 27.414 130.961 27.63V28.314C130.961 28.692 131.015 28.764 131.357 28.764H132.203V32.778C132.203 34.092 132.221 34.83 132.779 35.46C133.229 35.982 134.021 36.216 134.939 36.216C135.659 36.216 136.397 36.036 136.955 35.802C137.135 35.73 137.225 35.64 137.225 35.46ZM146.781 31.626C146.781 28.98 145.431 27.036 142.497 27.036C139.689 27.036 138.105 29.016 138.105 31.608C138.105 34.236 139.455 36.216 142.389 36.216C145.197 36.216 146.781 34.218 146.781 31.626ZM144.531 31.626C144.531 33.102 143.991 34.506 142.407 34.506C140.805 34.506 140.355 33.048 140.355 31.572C140.355 30.132 140.877 28.746 142.479 28.746C144.063 28.746 144.531 30.15 144.531 31.626ZM153.456 27.342C153.456 27.198 153.402 27.144 153.276 27.108C153.114 27.072 152.916 27.036 152.772 27.036C151.764 27.036 151.152 27.486 150.594 28.188L150.576 27.612C150.576 27.36 150.414 27.27 150.126 27.27H148.974C148.704 27.27 148.524 27.36 148.524 27.72V29.934V35.55C148.524 35.856 148.668 36 148.956 36H150.27C150.576 36 150.702 35.838 150.702 35.55V29.826C151.152 29.286 151.818 28.962 152.43 28.962C152.592 28.962 152.772 28.98 152.916 29.016C152.952 29.016 152.97 29.016 152.988 29.016C153.132 29.016 153.222 28.944 153.24 28.782L153.438 27.504C153.456 27.45 153.456 27.396 153.456 27.342ZM167.98 32.364C167.98 30.546 166.684 29.376 164.974 29.25V29.232C166.288 28.944 167.008 27.846 167.008 26.586C167.008 24.426 165.388 23.544 162.49 23.544H159.79C159.412 23.544 159.25 23.634 159.25 24.012V35.478C159.25 35.856 159.34 36 159.718 36H163.066C165.622 36 167.98 35.28 167.98 32.364ZM164.74 26.856C164.74 28.314 163.804 28.656 162.49 28.656H161.554V25.308H162.562C163.822 25.308 164.74 25.686 164.74 26.856ZM165.622 32.292C165.622 33.156 165.208 33.714 164.578 33.984C164.128 34.164 163.516 34.218 162.886 34.218H161.554V30.294C161.716 30.294 162.616 30.294 162.742 30.294C163.498 30.294 164.11 30.348 164.668 30.618C165.244 30.906 165.622 31.446 165.622 32.292ZM178.324 35.658V34.812C178.324 34.578 178.216 34.506 178 34.506H177.856C177.766 34.506 177.694 34.488 177.64 34.434C177.568 34.344 177.532 34.164 177.532 33.912V27.666C177.532 27.396 177.388 27.27 177.154 27.27H175.894C175.678 27.27 175.534 27.396 175.516 27.594L175.48 28.08C175.03 27.468 174.13 27.036 173.176 27.036C171.16 27.036 169.288 28.674 169.288 31.788C169.288 34.128 170.44 36.216 172.978 36.216C173.968 36.216 175.138 35.604 175.588 34.938H175.624C175.75 35.55 176.164 36 177.1 36H177.964C178.18 36 178.324 35.874 178.324 35.658ZM175.354 33.21C175.084 33.768 174.328 34.434 173.446 34.434C172.114 34.434 171.538 33.156 171.538 31.644C171.538 29.754 172.474 28.818 173.572 28.818C174.256 28.818 174.994 29.214 175.354 29.736V33.21ZM184.815 27.342C184.815 27.198 184.761 27.144 184.635 27.108C184.473 27.072 184.275 27.036 184.131 27.036C183.123 27.036 182.511 27.486 181.953 28.188L181.935 27.612C181.935 27.36 181.773 27.27 181.485 27.27H180.333C180.063 27.27 179.883 27.36 179.883 27.72V29.934V35.55C179.883 35.856 180.027 36 180.315 36H181.629C181.935 36 182.061 35.838 182.061 35.55V29.826C182.511 29.286 183.177 28.962 183.789 28.962C183.951 28.962 184.131 28.98 184.275 29.016C184.311 29.016 184.329 29.016 184.347 29.016C184.491 29.016 184.581 28.944 184.599 28.782L184.797 27.504C184.815 27.45 184.815 27.396 184.815 27.342ZM193.846 35.496V27.684C193.846 27.36 193.684 27.27 193.396 27.27H192.118C191.83 27.27 191.668 27.378 191.668 27.684V33.426C191.128 33.912 190.264 34.29 189.58 34.29C188.5 34.29 188.248 33.606 188.248 32.616V27.684C188.248 27.36 188.086 27.27 187.798 27.27H186.538C186.25 27.27 186.07 27.378 186.07 27.684V32.994C186.07 34.938 186.898 36.216 188.914 36.216C189.958 36.216 190.948 35.856 191.776 35.19L191.794 35.64C191.812 35.874 191.992 36 192.226 36H193.378C193.738 36 193.846 35.874 193.846 35.496ZM128.051 45.76C128.051 45.616 127.925 45.544 127.709 45.544H126.413C126.071 45.544 125.927 45.634 125.783 45.922L123.227 50.98H123.191L120.599 45.886C120.473 45.652 120.257 45.544 119.933 45.544H118.295C118.097 45.544 117.971 45.652 117.971 45.796C117.971 45.85 117.989 45.904 118.025 45.976L121.931 52.942V57.55C121.931 57.856 122.075 58 122.345 58H123.857C124.127 58 124.271 57.856 124.271 57.586V52.852L127.979 45.994C128.033 45.904 128.051 45.814 128.051 45.76ZM136.383 57.658V56.812C136.383 56.578 136.275 56.506 136.059 56.506H135.915C135.825 56.506 135.753 56.488 135.699 56.434C135.627 56.344 135.591 56.164 135.591 55.912V49.666C135.591 49.396 135.447 49.27 135.213 49.27H133.953C133.737 49.27 133.593 49.396 133.575 49.594L133.539 50.08C133.089 49.468 132.189 49.036 131.235 49.036C129.219 49.036 127.347 50.674 127.347 53.788C127.347 56.128 128.499 58.216 131.037 58.216C132.027 58.216 133.197 57.604 133.647 56.938H133.683C133.809 57.55 134.223 58 135.159 58H136.023C136.239 58 136.383 57.874 136.383 57.658ZM133.413 55.21C133.143 55.768 132.387 56.434 131.505 56.434C130.173 56.434 129.597 55.156 129.597 53.644C129.597 51.754 130.533 50.818 131.631 50.818C132.315 50.818 133.053 51.214 133.413 51.736V55.21ZM150.974 57.55V52.996C150.974 51.844 150.884 51.052 150.542 50.386C150.164 49.684 149.336 49.036 148.022 49.036C146.924 49.036 145.754 49.432 144.944 50.206C144.53 49.522 143.756 49.036 142.658 49.036C141.722 49.036 140.75 49.414 140.012 50.062L139.994 49.612C139.976 49.36 139.814 49.27 139.544 49.27H138.374C138.104 49.27 137.942 49.396 137.942 49.684V57.55C137.942 57.874 138.086 58 138.41 58H139.67C139.976 58 140.12 57.874 140.12 57.55V51.808C140.696 51.304 141.416 50.908 142.118 50.908C143.216 50.908 143.414 51.664 143.414 52.618V57.55C143.414 57.874 143.558 58 143.882 58H145.07C145.376 58 145.502 57.874 145.502 57.55V54.544C145.502 54.292 145.466 51.88 145.43 51.718C145.988 51.268 146.78 50.908 147.464 50.908C148.562 50.908 148.814 51.646 148.814 52.618V57.55C148.814 57.874 148.958 58 149.282 58H150.542C150.848 58 150.974 57.874 150.974 57.55ZM161.713 57.658V56.812C161.713 56.578 161.605 56.506 161.389 56.506H161.245C161.155 56.506 161.083 56.488 161.029 56.434C160.957 56.344 160.921 56.164 160.921 55.912V49.666C160.921 49.396 160.777 49.27 160.543 49.27H159.283C159.067 49.27 158.923 49.396 158.905 49.594L158.869 50.08C158.419 49.468 157.519 49.036 156.565 49.036C154.549 49.036 152.677 50.674 152.677 53.788C152.677 56.128 153.829 58.216 156.367 58.216C157.357 58.216 158.527 57.604 158.977 56.938H159.013C159.139 57.55 159.553 58 160.489 58H161.353C161.569 58 161.713 57.874 161.713 57.658ZM158.743 55.21C158.473 55.768 157.717 56.434 156.835 56.434C155.503 56.434 154.927 55.156 154.927 53.644C154.927 51.754 155.863 50.818 156.961 50.818C157.645 50.818 158.383 51.214 158.743 51.736V55.21ZM171.138 57.64V52.258C171.138 50.314 170.31 49.036 168.294 49.036C167.34 49.036 166.206 49.378 165.45 50.008V45.49C165.45 45.238 165.342 45.148 165.144 45.148C165.072 45.148 164.982 45.148 164.91 45.166L163.668 45.328C163.416 45.364 163.272 45.454 163.272 45.778V57.676C163.272 57.91 163.344 58 163.56 58H165.108C165.378 58 165.45 57.91 165.45 57.64V51.808C166.008 51.322 166.908 50.944 167.61 50.944C168.69 50.944 168.96 51.664 168.96 52.636V57.64C168.96 57.928 169.014 58 169.266 58H170.85C171.084 58 171.138 57.91 171.138 57.64ZM181.892 57.658V56.812C181.892 56.578 181.784 56.506 181.568 56.506H181.424C181.334 56.506 181.262 56.488 181.208 56.434C181.136 56.344 181.1 56.164 181.1 55.912V49.666C181.1 49.396 180.956 49.27 180.722 49.27H179.462C179.246 49.27 179.102 49.396 179.084 49.594L179.048 50.08C178.598 49.468 177.698 49.036 176.744 49.036C174.728 49.036 172.856 50.674 172.856 53.788C172.856 56.128 174.008 58.216 176.546 58.216C177.536 58.216 178.706 57.604 179.156 56.938H179.192C179.318 57.55 179.732 58 180.668 58H181.532C181.748 58 181.892 57.874 181.892 57.658ZM178.922 55.21C178.652 55.768 177.896 56.434 177.014 56.434C175.682 56.434 175.106 55.156 175.106 53.644C175.106 51.754 176.042 50.818 177.14 50.818C177.824 50.818 178.562 51.214 178.922 51.736V55.21Z" fill="white"/>
<path d="M50 23.7004C50 23.7004 55 26.7004 55.5 27.7004L50.5 25.2007L50 23.7004Z" fill="#002F5F"/>
<path d="M25 62.2004L26.5 64.7004H29L26.5 61.7004L25.5 59.7004V57.2004L28 56.7004L30 56.2004C29.3972 54.4603 28.8133 53.602 27.5 52.2004V55.2004L25.5 56.2004H24V59.7004L25 62.2004Z" fill="#002F5F"/>
<path d="M35 66.7004L34.5 70.7004C34.5 70.7004 34.5127 74.6661 35 72.2004C35.4873 69.7348 36.0053 68.5118 37.5 66.7004H35Z" fill="#002F5F" stroke="#002F5F" stroke-width="0.5"/>
<path d="M34 74.2004L35.5 76.7004V77.2004L36.5 75.7004L35.5 73.7004L33 70.7004L30.5 67.2004L28.5 65.2004L26.5 64.7004L25.5 65.7004L24 66.2004V69.7004L26.5 72.2004L29 75.2004L32.5 78.7004L33 77.2004L32.5 76.7004L30 74.7004L27.5 71.7004L26.5 68.7004L27.5 67.2004L29.5 68.7004L31 71.7004L34 74.2004Z" fill="#002F5F"/>
<path d="M22 87.2004L27.5 91.7004L28 92.2004L28.5 89.7004L22 84.2004L20 81.7004L18.5 78.7004L17 76.2004L17.5 72.7004L20 73.2004L23 73.7004L26.5 77.7004L28.5 80.2004L31 83.2004L32 81.7004V79.2004L29 76.2004L26.5 73.2004L23 70.7004H19.5L18.5 68.2004L15 68.7004V77.7004L16.5 79.7004L18.5 83.2004L22 87.2004Z" fill="#002F5F"/>
<path d="M31.4999 46.7004C35.9125 46.2224 39.09 47.1431 45.4999 47.2006L44.9999 48.7006L43.9999 49.2006L41.4999 50.2006L37.9999 51.2006L31.9999 50.2006C31.8047 51.1769 32.1952 52.7242 31.9999 53.7006C33.0453 55.1351 33.6787 55.8399 34.9999 56.7006C36.8597 58.7879 37.9568 59.7605 39.9999 61.2006L39.4999 62.7006L33.4999 58.7006L30.9999 56.7006C30.035 55.9604 29.5741 55.4455 28.9999 54.2006C28.4058 53.0385 25.827 51.7565 25.9999 50.2006C26.1942 49.2321 25.3563 47.6859 25.9999 46.7006C26.6616 46.2914 30.6035 46.6837 31.4999 46.7004Z" fill="#002F5F"/>
<path d="M50.0001 31.2004L51.5001 29.7004L50.5001 34.2004L50.0001 35.2004H46.0001C44.6345 35.1649 42.5001 35.7004 46.0001 34.2004L48.5001 33.7004C49.4764 32.9194 49.5001 32.2004 50.0001 31.2004Z" fill="#002F5F" stroke="#002F5F" stroke-width="0.5"/>
<path d="M78.5 15.6998L77.5 19.1998L79 16.6998C81.0519 16.2122 82.1451 16.22 84 16.6998C83.6445 19.2244 82.6983 20.3617 80.5 22.1998C83.4547 21.1109 84.6693 19.9505 85.5 16.1998C85.3116 15.6075 85.0655 15.415 84.5 15.1998C82.0206 14.8058 80.7277 15.0057 78.5 15.6998Z" fill="#002F5F" stroke="#002F5F" stroke-width="0.5"/>
<path d="M53.0915 20.11L52.5001 24.2004L51.8752 20.8316C49.7777 20.6106 48.1029 19.713 46.3247 20.4264C47.0004 22.8847 48.0844 23.8915 50.4999 25.4331C47.4301 24.7313 46.077 23.736 44.773 20.1225C44.8841 19.5108 45.1036 19.2885 45.6368 19.0027C48.9788 18.028 50.7929 19.0071 53.0915 20.11Z" fill="#002F5F" stroke="#002F5F" stroke-width="0.5"/>
<path d="M75.5 22.7004C76.8668 21.7241 79 19.7004 79 19.7004" stroke="#002F5F"/>
<path d="M78.5 22.7004C79.8668 21.7241 79.5 20.7004 79.5 20.7004" stroke="#002F5F"/>
<path d="M99 47.7005L99.5 51.2005C94.6944 40.146 91.5381 34.5781 85.5 25.2005C79.5 22.2004 72.5 23.1479 68 26.2005V27.2005L69.5 29.2005C63.5 28.2005 59.8202 27.458 54 28.7005L54.5 27.7005C60.3226 27.3992 63.2488 27.657 68 28.7005L67 27.2005V25.2005C74.9083 21.7681 79.2009 21.3105 86.5 24.2005C92.6845 33.1592 95.4415 38.3198 99 47.7005Z" fill="#002F5F" stroke="#002F5F" stroke-width="0.5"/>
<path d="M83.5 42.7004C78.8471 36.1609 75.5 33.2004 70 28.7004C74.2237 34.2767 78.1626 37.747 83.5 42.7004Z" fill="#002F5F" stroke="#002F5F" stroke-width="0.5"/>
<path d="M71 32.2004L70.5 30.7004L71.5 32.7004V35.7004C79.0715 41.5051 83.517 44.1519 92 47.2004C93.044 46.5138 93.6006 46.006 94.5 44.7004C94.8866 44.045 94.9768 43.3362 95 41.7004L95.5 44.7004C93.9356 46.7592 93.1948 47.4358 92 48.2004C82.4486 45.3463 77.8848 42.4904 70.5 36.2004L71 32.2004Z" fill="#002F5F" stroke="#002F5F" stroke-width="0.5"/>
<path d="M84.5 61.2004C75.8749 56.9254 70.7473 52.9163 61.5 45.2004L63.5 47.7004C74.2159 58.0085 78.3941 60.1233 84.5 61.2004Z" fill="#002F5F" stroke="#002F5F" stroke-width="0.5"/>
<path d="M54.5 40.7004C58.9348 50.4421 61.6346 55.783 67.5 64.7004C63.0952 55.6685 60.5717 50.393 56 40.7004L58.5 37.7004C66.143 35.8327 67.7239 34.7079 70.5 32.7004C65.9392 34.9675 63.3523 35.7458 58.5 33.2004L51.5 34.7004H58.5L61.5 35.7004L57.5 36.7004L54.5 40.7004Z" fill="#002F5F" stroke="#002F5F" stroke-width="0.5"/>
<path d="M46 47.7004L45.5 49.2004C47.6209 50.2797 48.8229 51.1408 50.927 52.6482L51 52.7004L55 53.2004C62.5 59.2004 63 64.2004 66 65.2004L64.5 63.7004C62.8373 59.7635 62.1404 57.6512 55.5 51.7004L51.5 51.2004L46 47.7004Z" fill="#002F5F"/>
<path d="M66 65.2004L64.5 63.7004C62.8373 59.7635 62.1404 57.6512 55.5 51.7004L51.5 51.2004L46 47.7004L45.5 49.2004C47.6453 50.2921 48.8505 51.1606 51 52.7004L55 53.2004C62.5 59.2004 63 64.2004 66 65.2004ZM66 65.2004C65.0237 64.4194 66.9763 65.9815 66 65.2004Z" stroke="#002F5F" stroke-width="0.5"/>
<path d="M53.3592 65.1777C49.8806 64.6159 47.8055 64.2807 44 63.2004C46.7841 64.9377 48.7632 65.6841 53 66.7004C54.5119 66.8945 55.2226 66.8198 56.5 66.7004C59.0124 65.1695 60.614 64.7948 63.5 64.2004C60.5512 63.9775 58.9034 64.0226 56 65.2004H53.5L53.3592 65.1777Z" fill="#002F5F" stroke="#002F5F" stroke-width="0.5"/>
<path d="M42.5 65.7004L38.5 66.2004L39 65.2004L42.5 65.7004Z" fill="#002F5F" stroke="#002F5F" stroke-width="0.5"/>
<path d="M40 63.2004C45.7275 67.3933 52.0415 69.4524 62.5 73.2004C53.1136 68.9999 47.7365 66.6866 40.5 61.7004L40 63.2004Z" fill="#002F5F" stroke="#002F5F" stroke-width="0.5"/>
<path d="M103 66.7004L100.5 71.2004L102.983 66.6478C101.518 62.038 100.282 60.0701 98 56.7004L96 59.7004C95.1438 59.3871 94.6957 59.1796 94 58.7004C92.1824 58.9622 91.1875 59.2382 89.5 60.2004C81.8913 58.8783 79.5 54.7004 75.5 47.2004C78.2337 50.5199 79.2663 52.381 82 55.7004C86.6769 59.0847 89.0285 59.6685 92.5 57.2004H94L95.5 58.2004C98.0175 53.9626 97.8208 51.6918 96.5 47.7004L93 51.2004H91.5L79.5 46.7004H76.5L79 45.7004L92 50.2004C93.9856 48.5186 94.9484 47.3979 96.5 45.2004C98.7465 48.5209 99.5893 50.7041 99 56.2004C101.475 59.741 102.574 61.7933 103.5 65.7004L102.983 66.6478C102.989 66.6653 102.994 66.6828 103 66.7004Z" fill="#002F5F" stroke="#002F5F" stroke-width="0.5"/>
<path d="M75 59.7004L71 67.7004C73.0551 64.9297 74.0986 63.3331 76.5 60.7004L82.5 64.2004L76 58.7004C75.603 58.8548 75.3806 59.0366 75 59.7004Z" fill="#002F5F" stroke="#002F5F" stroke-width="0.5"/>
<path d="M76 69.7004C73.0775 77.6629 71.625 82.2458 69.5 90.7004C72.616 82.1502 74.3655 77.5106 77.5 70.7004C81.2163 67.4228 83.4367 65.9762 87.5 63.7004H93C94.3312 63.1116 95.0855 62.8662 96.5 63.2004C98.1501 64.5833 98.7096 65.4957 99.5 67.2004L100 69.7004L100.5 66.7004L97 61.7004H94.5C93.5312 62.2267 92.9842 62.4741 92 62.7004C90.0657 62.6332 88.9661 62.4898 87 62.2004C81.8583 65.0995 79.6709 66.7495 76 69.7004Z" fill="#002F5F" stroke="#002F5F" stroke-width="0.5"/>
<path d="M81.5 78.2004L82.5 69.7004V78.2004L85.5 86.7004C87.4994 88.7395 88 89.7004 88 88.2004V80.2004C89 78.2004 90.6693 78.1266 93 78.7004C98.5545 79.8059 105.5 80.7004 105.5 79.2004C102.599 75.8177 100.862 74.1771 97.5 71.7004L96 68.7004C94.5701 69.9622 93.6922 70.6232 92 71.7004L85 69.7004C87.3882 70.1931 88.426 70.5261 92.5 70.7004C93.8678 69.3368 94.6339 68.7222 96 67.7004C96.6951 68.6479 96.8269 68.9515 99 71.2004C102.576 74.0201 104.219 75.8453 107 79.2004V80.2004C103.5 82.2004 98.7199 81.397 92.5 79.7004C90.2243 79.543 89.5206 79.9202 89 81.2004C89 83.7004 90 90.2004 89 90.2004C88 90.7004 86.0554 88.9676 84.5 87.2004L81.5 78.2004Z" fill="#002F5F" stroke="#002F5F" stroke-width="0.5"/>
<path d="M105 82.2004C118.5 104.2 96.5 130.7 80.5 102.7C90.5 126.2 112 115.2 110.5 94.7004C110 90.2004 108.5 85.7004 105 82.2004Z" fill="#002F5F" stroke="#002F5F" stroke-width="0.5"/>
<path d="M89.5 84.7004C91.6686 83.3012 93.0086 83.221 95.5 83.7004C94 81.7004 90 82.2004 89.5 84.7004Z" fill="#002F5F"/>
<path d="M89.5 84.7004C91.6686 83.3012 93.0086 83.221 95.5 83.7004C94 81.7004 90 82.2004 89.5 84.7004ZM89.5 84.7004C89.3047 85.0909 89.6952 84.3099 89.5 84.7004Z" stroke="#002F5F" stroke-width="0.5"/>
<path d="M93.09 106.262C95.5962 106.878 96.8893 106.517 99.0885 105.252C98.3219 107.632 94.3773 108.462 93.09 106.262Z" fill="#002F5F"/>
<path d="M93.09 106.262C95.5962 106.878 96.8893 106.517 99.0885 105.252C98.3219 107.632 94.3773 108.462 93.09 106.262ZM93.09 106.262C92.7782 105.956 93.4019 106.567 93.09 106.262Z" stroke="#002F5F" stroke-width="0.5"/>
<path d="M93.5 81.2004C112.5 98.7004 91.5 126.7 81.5 97.7004C83.9425 108.913 89.5 112.7 95.5 111.2C101.5 108.2 103.5 100.7 102 93.7004C100.607 87.0775 97 82.8204 93.5 81.2004Z" fill="#002F5F" stroke="#002F5F" stroke-width="0.5"/>
<path d="M83 96.2004C85 105.2 92.5 108.7 95.5 99.2004C95.9958 92.7548 94.864 90.5815 90.6083 86.309C90.4796 86.2341 90.4352 86.2004 90.5 86.2004C90.5363 86.2368 90.5724 86.2729 90.6083 86.309C91.472 86.8116 96.1297 89.173 97 95.7004C97.5 102.2 93.5 105.2 92.5 105.7C86.5 107.7 84.2546 103.071 83 96.2004Z" fill="#002F5F" stroke="#002F5F" stroke-width="0.5"/>
<path d="M80.0001 98.7004C80.8017 93.8129 81.4874 91.2005 83 86.7004C80 88.7004 78.5001 95.7004 80.0001 98.7004Z" fill="#002F5F" stroke="#002F5F" stroke-width="0.5"/>
<path d="M79.5 100.7C72.0796 101.872 64.6778 100.766 44 94.7004C51.6308 98.2631 56.706 100.024 69 102.2C73.8121 101.775 76.1807 101.462 79.5 100.7Z" fill="#002F5F" stroke="#002F5F" stroke-width="0.5"/>
<path d="M56.5 91.7004C50.7258 90.5666 47.2973 89.2388 41 86.2004C45.5 89.7004 53 93.2004 57.5 93.2004C63.951 83.0672 66.2091 78.2136 70 69.7004C64.7303 78.5521 61.7765 83.5767 56.5 91.7004Z" fill="#002F5F" stroke="#002F5F" stroke-width="0.5"/>
<path d="M46 76.2004C42.3161 76.0353 40.3665 76.3257 37 77.2004C40.4651 77.0933 43.5 77.1281 45.5 77.2004C48 78.2004 55.3718 80.9405 61.5 82.7004C55.4264 79.897 48.5 76.7004 46 76.2004Z" fill="#002F5F"/>
<path d="M35.5 79.7004C35.8957 77.9376 36.2331 77.415 37 77.2004M37 77.2004C40.3665 76.3257 42.3161 76.0353 46 76.2004C48.5 76.7004 55.4264 79.897 61.5 82.7004C55.3718 80.9405 48 78.2004 45.5 77.2004C43.5 77.1281 40.4651 77.0933 37 77.2004Z" stroke="#002F5F" stroke-width="0.5"/>
<path d="M33.5 79.2004L33.0257 79.0423L32.9396 79.3004L33.1096 79.5128L33.5 79.2004ZM34 77.7004L34.4188 77.4273L33.8531 76.5599L33.5257 77.5423L34 77.7004ZM41.5 89.2004L41.9881 89.092L41.9684 89.0033L41.9188 88.9273L41.5 89.2004ZM42.0119 93.8089C42.0718 94.0785 42.3389 94.2484 42.6085 94.1885C42.878 94.1286 43.048 93.8615 42.9881 93.592L42.0119 93.8089ZM33.9743 79.3586L34.4743 77.8586L33.5257 77.5423L33.0257 79.0423L33.9743 79.3586ZM33.5812 77.9736L41.0812 89.4736L41.9188 88.9273L34.4188 77.4273L33.5812 77.9736ZM41.5 89.2004C41.0119 89.3089 41.0119 89.3089 41.0119 89.3089C41.0119 89.309 41.0119 89.309 41.0119 89.309C41.012 89.3092 41.012 89.3091 41.012 89.3094C41.0121 89.3098 41.0122 89.3101 41.0123 89.3109C41.0127 89.3123 41.0131 89.3142 41.0137 89.3168C41.0148 89.3221 41.0166 89.3299 41.0188 89.3401C41.0234 89.3606 41.0301 89.391 41.0389 89.4302C41.0563 89.5086 41.0816 89.6226 41.1132 89.7649C41.1765 90.0495 41.2649 90.4472 41.3655 90.8999C41.5666 91.8052 41.8166 92.9302 42.0119 93.8089L42.9881 93.592C42.7928 92.7133 42.5428 91.5883 42.3416 90.683C42.2411 90.2303 42.1527 89.8325 42.0894 89.548C42.0578 89.4057 42.0325 89.2917 42.015 89.2133C42.0063 89.174 41.9996 89.1437 41.995 89.1232C41.9928 89.1129 41.991 89.1052 41.9899 89.0999C41.9893 89.0972 41.9888 89.0953 41.9885 89.094C41.9884 89.0934 41.9883 89.0928 41.9882 89.0925C41.9881 89.0922 41.9882 89.0923 41.9881 89.0921C41.9881 89.0921 41.9881 89.092 41.9881 89.092C41.9881 89.092 41.9881 89.092 41.5 89.2004ZM41.8904 88.8881L33.8904 78.8881L33.1096 79.5128L41.1096 89.5128L41.8904 88.8881Z" fill="#002F5F"/>
<path d="M36 89.2004C37.2914 90.6278 38.4673 90.9852 41 91.2004" stroke="#002F5F" stroke-linecap="round"/>
<path d="M36 91.2004C37.5 92.2004 37.5 92.7004 40 93.2004" stroke="#002F5F" stroke-linecap="round"/>
<path d="M36 85.2004L37.5 86.2004" stroke="#002F5F" stroke-linecap="round"/>
<path d="M36 87.2004C36.8544 88.105 37.7738 88.4114 39 88.2004" stroke="#002F5F" stroke-linecap="round"/>
<path d="M34.5 81.2004C34.7551 86.7312 34.5 93.7004 34.5 93.7004" stroke="#002F5F"/>
<path d="M32 89.2004L31.5125 89.0895L31.4792 89.2357L31.5318 89.376L32 89.2004ZM44.5 96.7004C44.7761 96.7004 45 96.4766 45 96.2004C45 95.9243 44.7761 95.7004 44.5 95.7004V96.7004ZM31.0473 83.9127C31.4546 84.7816 31.7016 85.4431 31.7881 86.1886C31.8748 86.9361 31.8044 87.8068 31.5125 89.0895L32.4875 89.3114C32.7921 87.9728 32.8864 86.9781 32.7814 86.0733C32.6762 85.1665 32.3748 84.3886 31.9527 83.4882L31.0473 83.9127ZM31.5318 89.376C33.0541 93.4355 34.7535 95.3451 36.9494 96.1686C38.0259 96.5723 39.1842 96.6997 40.4247 96.7315C41.6442 96.7628 43.0395 96.7004 44.5 96.7004V95.7004C42.9605 95.7004 41.6683 95.7631 40.4503 95.7319C39.2533 95.7012 38.2241 95.5786 37.3006 95.2323C35.4965 94.5558 33.9459 92.9654 32.4682 89.0249L31.5318 89.376Z" fill="#002F5F"/>
<path d="M28.5 93.2004C35.7814 97.8256 40.5682 98.2182 49.5 97.7004" stroke="#002F5F" stroke-linecap="round"/>
<path d="M29 94.7004C32 99.2004 34.5 99.7004 36.5 97.7004" stroke="#002F5F" stroke-linecap="round"/>
<path d="M27.5 94.7004C32.5 104.7 39.5 105.2 44.5 98.7004" stroke="#002F5F" stroke-linecap="round" stroke-linejoin="round"/>
<ellipse cx="72.8042" cy="70.539" rx="2.42801" ry="0.884853" transform="rotate(44.7939 72.8042 70.539)" fill="#002F5F"/>
<ellipse cx="66.0071" cy="68.4523" rx="3.31506" ry="0.619145" transform="rotate(115.944 66.0071 68.4523)" fill="#002F5F"/>
<defs>
<linearGradient id="paint0_linear" x1="-9.5" y1="125.5" x2="210" y2="-20" gradientUnits="userSpaceOnUse">
<stop offset="0.29062" stop-color="#EEAE30"/>
<stop offset="0.520968" stop-color="#F0B733"/>
<stop offset="0.660871" stop-color="#EEB631"/>
<stop offset="0.958703" stop-color="#F3B42D" stop-opacity="0.47095"/>
<stop offset="1" stop-color="#F8B229" stop-opacity="0"/>
</linearGradient>
</defs>
</svg>
