{
    "Tipe": [
      {
        "value": "",
        "label": "Pilih"
      },
      {
        "value": "Jupiter",
        "label": "Jupiter"
      },
  
      {
        "value": "Vega",
        "label": "Vega"
      },
      {
        "value": "MX King",
        "label": "MX King"
      },
      {
        "value": "All New XSR 155",
        "label": "All New XSR 155"
      },
      {
        "value": "Byson",
        "label": "Byson"
      },
      {
        "value": "MT 15",
        "label": "MT 15"
      },
      {
        "value": "MT 25",
        "label": "MT 25"
      },
      {
        "value": "R 15",
        "label": "R 15"
      },
      {
        "value": "R 25",
        "label": "R 25"
      },
      {
        "value": "Vixion",
        "label": "Vixion"
      },
      {
        "value": "WR 155R",
        "label": "WR 155R"
      },
      {
        "value": "Xabre",
        "label": "Xabre"
      },
      {
        "value": "Aerox 155",
        "label": "Aerox 155"
      },
      {
        "value": "Fino",
        "label": "Fino"
      },
      {
        "value": "FreeGo",
        "label": "FreeGo"
      },
      {
        "value": "Lexi",
        "label": "Lexi"
      },
      {
        "value": "Grand Filano",
        "label": "Grand Filano"
      },
      {
        "value": "Mio S",
        "label": "Mio S"
      },
      {
        "value": "Mio Spoke",
        "label": "Mio Spoke"
      },
      {
        "value": "Mio Z",
        "label": "Mio Z"
      },
      {
        "value": "NMax",
        "label": "NMax"
      },
      {
        "value": "All New Soul GT",
        "label": "All New Soul GT"
      },
      {
        "value": "XMax",
        "label": "XMax"
      },
      {
        "value": "Xeon",
        "label": "Xeon"
      },
      {
        "value": "Xride",
        "label": "Xride"
      }
    ],
    "Dp": [
      {
        "value": "",
        "label": "Pilih"
      },
      {
        "value": "0.10",
        "label": "10%"
      },
      {
        "value": "0.20",
        "label": "20%"
      },
      {
        "value": "0.30",
        "label": "30%"
      }
    ],
    "Tenor": [
      {
        "value": "",
        "label": "Pilih"
      },
      {
        "value": "11^0.1376",
        "label": "11 Bulan"
      },
      {
        "value": "17^0.3069",
        "label": "17 Bulan"
      },
      {
        "value": "23^0.3771",
        "label": "23 Bulan"
      },
      {
        "value": "29^0.4562",
        "label": "29 Bulan"
      },
      {
        "value": "35^0.5905",
        "label": "35 Bulan"
      }
    ]
  }
  